[
  {
    "linkText": "About",
    "parentLink": "/about",
    "menu": false,
    "submenu": []
  },
  {
    "linkText": "AngularJS SPA",
    "parentLink": "/angularjs-spa",
    "menu": false,
    "submenu": []
  },
  {
    "linkText": "Codepens",
    "parentLink": "",
    "menu": false,
    "submenu": [
      {
        "childText": "Link 1",
        "link": "https://codepen.io/UX_Dev/live/5c88e99d0e9a03834dc2d113c24f9daa"
      },
      {
        "childText": "Link 2",
        "link": "https://codepen.io/UX_Dev/pen/LmxqKa"
      },
      {
        "childText": "Link 3",
        "link": "https://codepen.io/UX_Dev/pen/yzejjQ"
      },
      {
        "childText": "Link 4",
        "link": "https://codepen.io/UX_Dev/pen/xoLQrY"
      },
      {
        "childText": "Link 5",
        "link": "https://codepen.io/UX_Dev/pen/2788684ea795e215e9dff54bd5abc66b"
      }
    ]
  },
  {
    "linkText": "Navigation",
    "parentLink": "",
    "menu": false,
    "submenu": [
      {
        "childText": "Pure CSS Menu",
        "link": "https://codepen.io/UX_Dev/pen/VMwxmQ"
      },
      {
        "childText": "User Selection",
        "link": "https://codepen.io/UX_Dev/live/ZXYLyV"
      },
      {
        "childText": "In Page Navigation",
        "link": "https://codepen.io/UX_Dev/pen/JjogojN"
      },
      {
        "childText": "Progress Navigation Bar",
        "link": "https://codepen.io/UX_Dev/pen/xXOapm"
      }
    ]
  },
  {
    "linkText": "Angular 8",
    "parentLink": "",
    "menu": false,
    "submenu": [
      {
        "childText": "Nested Routing",
        "link": "https://stackblitz.com/edit/angular-8-nested-routing"
      },
      {
        "childText": "Modular Routing",
        "link": "https://stackblitz.com/edit/module-to-module-routing"
      },
      {
        "childText": "JSON Line Chart",
        "link": "https://stackblitz.com/edit/line-chart-component-json"
      }
    ]
  }
]
